<?xml version="1.0" encoding="utf-8"?>
<!-- Generator: Adobe Illustrator 23.0.2, SVG Export Plug-In . SVG Version: 6.00 Build 0)  -->
<svg version="1.1" id="Layer_1" xmlns="http://www.w3.org/2000/svg" xmlns:xlink="http://www.w3.org/1999/xlink" x="0px" y="0px"
	 viewBox="0 0 180 180" style="enable-background:new 0 0 180 180;" xml:space="preserve">
<style type="text/css">
	.st0{fill:#FFFFFF;}
	.st1{fill:#030F2B;}
</style>
<path class="st0" d="M90,180L90,180c-49.71,0-90-40.29-90-90v0C0,40.29,40.29,0,90,0h0c49.71,0,90,40.29,90,90v0
	C180,139.71,139.71,180,90,180z"/>
<g>
	<path class="st1" d="M108.78,88.8c-2.84,0-5.36-0.98-7.31-2.84c-2.17-2.08-3.4-5.07-3.47-8.43c-0.13-6.3,4.73-11.32,11.3-11.69
		c3.08-0.18,5.77,0.75,7.8,2.66c2.1,1.98,3.26,4.87,3.27,8.15c0.02,6.67-4.95,12.01-11.32,12.15
		C108.96,88.8,108.87,88.8,108.78,88.8z M110.02,66.82c-0.22,0-0.43,0.01-0.66,0.02c-6.12,0.34-10.47,4.83-10.35,10.67
		c0.06,3.09,1.18,5.83,3.16,7.73c1.81,1.73,4.17,2.64,6.86,2.56c5.81-0.12,10.36-5.02,10.34-11.15c-0.01-3-1.06-5.63-2.95-7.42
		C114.74,67.65,112.54,66.82,110.02,66.82z"/>
	<path class="st1" d="M85.59,138.45c-9.47,0-19.56-0.16-28.67-0.46c-6.16-0.21-9.2-3.31-9.29-9.49
		c-0.22-14.42-0.17-31.59,0.12-44.81c0.13-6.17,2.82-8.91,9.26-9.43c8-0.65,17.09-0.48,25.89-0.31c5.1,0.1,10.38,0.2,15.25,0.12
		c0.24-0.02,0.5,0.22,0.51,0.49s-0.22,0.5-0.49,0.51c-4.88,0.07-10.17-0.03-15.29-0.12c-8.77-0.17-17.84-0.34-25.79,0.31
		c-5.95,0.49-8.21,2.78-8.34,8.46c-0.29,13.21-0.34,30.37-0.12,44.78c0.08,5.69,2.65,8.31,8.32,8.5c14.61,0.49,31.78,0.6,44.8,0.28
		c5.7-0.14,8.16-2.59,8.48-8.48c0.31-5.58,0.31-11.55,0.31-17.87c0-7.66,0-15.58,0.6-22.81c0.02-0.27,0.26-0.47,0.54-0.46
		c0.27,0.02,0.48,0.26,0.46,0.54c-0.59,7.19-0.59,15.08-0.6,22.72c0,6.33,0,12.31-0.31,17.92c-0.35,6.37-3.27,9.27-9.46,9.42
		C96.86,138.39,91.34,138.45,85.59,138.45z"/>
	<g>
		<path class="st1" d="M111.68,83.29c-1.07,0.04-2.14,0.08-3.21,0.13c0.05-2.01,0.1-3.96,0.13-6c0-0.14,0-0.37,0.01-0.6
			c0-0.24,0.01-0.67,0.03-0.96c0.01-0.3,0.03-0.66,0.04-0.97c-0.15,0.17-0.24,0.29-0.41,0.46c-0.17,0.17-0.12,0.14-0.39,0.39
			c-0.27,0.25-0.96,0.84-1.32,1.14c-0.57-0.66-1.12-1.34-1.69-2.01c1.38-1.18,2.75-2.36,4.1-3.57c0.97-0.06,1.95-0.12,2.92-0.18
			C111.89,75.17,111.84,79.24,111.68,83.29z"/>
	</g>
	<g>
		<path class="st1" d="M58.9,127.11c-0.14,0-0.28-0.06-0.38-0.17c-0.12-0.14-0.16-0.33-0.1-0.5c0.18-0.5,0.37-0.99,0.55-1.49
			c0.2-0.54,0.41-1.08,0.59-1.6l-0.22-0.25c-1.76-1.95-3.42-3.79-3.08-6.95c0.76-7.05,7.55-10.28,13.54-10.3c0.02,0,0.04,0,0.06,0
			c4.14,0,7.81,1.35,10.07,3.71c1.7,1.77,2.54,4.09,2.42,6.7c-0.26,5.92-5.2,9.82-13.19,10.44c-1.53,0.12-3.36-0.31-4.96-0.75
			c-1,0.21-1.99,0.44-2.98,0.66c-0.74,0.17-1.48,0.33-2.22,0.5C58.97,127.11,58.93,127.11,58.9,127.11z M69.87,106.85
			c-0.02,0-0.04,0-0.06,0c-5.56,0.02-11.86,2.97-12.55,9.41c-0.29,2.72,1.15,4.32,2.83,6.17l0.42,0.47c0.12,0.13,0.16,0.32,0.1,0.5
			c-0.21,0.63-0.46,1.27-0.7,1.91c-0.08,0.21-0.16,0.41-0.23,0.62c0.44-0.1,0.89-0.2,1.33-0.3c1.03-0.23,2.06-0.47,3.11-0.69
			c0.08-0.02,0.16-0.01,0.24,0.01c1.46,0.41,3.32,0.86,4.74,0.75c2.79-0.21,11.92-1.53,12.27-9.49c0.11-2.36-0.62-4.37-2.15-5.97
			C77.17,108.12,73.68,106.85,69.87,106.85z"/>
		<path class="st1" d="M98.37,119.35c-0.04,0-0.08,0-0.11-0.01c-2.82-0.66-5.63-1.34-8.45-2.03l-0.24,0.08
			c-2.6,0.89-5.05,1.73-7.84,1.86c-0.26,0.03-0.51-0.2-0.52-0.47c-0.01-0.28,0.2-0.51,0.48-0.52c2.64-0.13,5.03-0.94,7.56-1.81
			l0.38-0.13c0.09-0.03,0.19-0.04,0.28-0.01c2.57,0.63,5.15,1.25,7.72,1.86l-0.12-0.37c-0.47-1.48-0.95-3-1.34-4.5
			c-0.04-0.17,0-0.34,0.12-0.47l0.4-0.42c3-3.19,5.82-6.2,5.53-10.84c-0.6-9.37-7.75-15.48-18.64-15.96
			c-9.66-0.42-20.51,5.48-21.92,16.09c-0.24,1.83,0.24,3.07,0.79,4.5c0.2,0.52,0.41,1.05,0.6,1.64c0.08,0.26-0.06,0.54-0.33,0.63
			c-0.26,0.08-0.54-0.06-0.63-0.33c-0.18-0.57-0.38-1.08-0.57-1.58c-0.58-1.5-1.13-2.91-0.85-5c1.49-11.18,12.83-17.4,22.95-16.96
			c11.44,0.5,18.95,6.98,19.59,16.9c0.33,5.07-2.78,8.38-5.79,11.59l-0.21,0.22c0.37,1.39,0.82,2.81,1.26,4.18l0.38,1.21
			c0.05,0.17,0.01,0.36-0.11,0.49C98.64,119.3,98.51,119.35,98.37,119.35z"/>
	</g>
	<path class="st1" d="M131.54,111.13c-0.07,0-0.14-0.01-0.2-0.04c-1.67-0.73-3.34-1.44-5.01-2.16c-5.13-2.2-10.44-4.48-15.54-7.03
		c-0.17-0.09-0.28-0.27-0.28-0.46c0.12-3.86,0.3-7.96,0.59-13.29c-0.03-0.23,0.1-0.46,0.33-0.53c0.01,0,0.02-0.01,0.03-0.01
		c5.06-2.06,8.04-6.15,7.92-10.91c-0.08-3.14-1.11-5.72-2.98-7.48c-1.77-1.66-4.22-2.49-7.07-2.38c-4.92,0.18-8.56,3.1-10.27,8.24
		c-0.04,0.13-0.14,0.24-0.27,0.3c-0.13,0.06-0.27,0.06-0.4,0.01c-0.16-0.07-0.28-0.18-0.37-0.27c-3.48-0.04-7.01-0.16-10.43-0.27
		c-4.94-0.17-10.06-0.34-15.09-0.28c-0.14,0.01-0.3-0.07-0.39-0.18c-2.64-3.23-5.25-6.73-8.21-11.02c-0.1-0.15-0.12-0.34-0.04-0.5
		c0.08-0.16,0.24-0.27,0.42-0.28c3.32-0.16,6.68-0.18,9.94-0.2c1.19-0.01,2.38-0.02,3.57-0.03c-3.27-7.7-5.97-15.21-8.24-22.91
		c-0.06-0.2,0.01-0.41,0.17-0.54c0.16-0.12,0.38-0.14,0.56-0.04L72,39.83c5.7,3.3,11.58,6.71,17.23,10.35
		c1-3.53,2.08-7.08,3.13-10.53c0.6-1.96,1.2-3.92,1.78-5.89c0.06-0.2,0.23-0.34,0.43-0.36c0.21-0.01,0.4,0.09,0.49,0.27
		c1.91,3.64,4.13,7.53,6.96,12.2c4.63-5.41,9.85-10.38,14.9-15.19l1.38-1.31c0.16-0.15,0.39-0.18,0.58-0.08
		c0.19,0.1,0.29,0.31,0.26,0.53c-0.31,1.85-0.7,3.74-1.08,5.56c-0.8,3.91-1.63,7.95-1.82,11.93c5.21-1.17,10.73-1.37,16.07-1.56
		c3.19-0.11,6.48-0.23,9.64-0.55c0.22-0.03,0.42,0.1,0.51,0.3c0.09,0.2,0.03,0.43-0.14,0.58l-0.5,0.43
		c-8.46,7.21-11.37,9.69-16.76,19.22c3.03,3.23,6.47,6.16,9.8,8.99c1.69,1.44,3.44,2.92,5.11,4.43c0.14,0.12,0.2,0.31,0.15,0.49
		c-0.05,0.18-0.19,0.32-0.37,0.36c-1.39,0.33-2.78,0.66-4.17,0.99c-3.95,0.94-8.02,1.9-12.01,2.97c2.02,8.09,4.79,16.05,7.48,23.75
		l0.96,2.75c0.07,0.19,0.01,0.4-0.13,0.53C131.79,111.09,131.67,111.13,131.54,111.13z M111.53,101.15
		c4.98,2.48,10.17,4.71,15.2,6.86c1.32,0.57,2.65,1.13,3.97,1.71l-0.58-1.68c-2.75-7.87-5.59-16.02-7.62-24.32
		c-0.06-0.26,0.09-0.53,0.36-0.6c4.15-1.12,8.4-2.12,12.52-3.1c1.08-0.26,2.16-0.51,3.24-0.77c-1.44-1.28-2.93-2.54-4.38-3.77
		c-3.45-2.93-7.01-5.96-10.13-9.34c-0.15-0.16-0.17-0.4-0.07-0.58c5.44-9.68,8.34-12.29,16.46-19.21c-2.7,0.22-5.45,0.32-8.13,0.41
		c-5.51,0.2-11.21,0.4-16.51,1.68c-0.15,0.03-0.31,0-0.43-0.1c-0.12-0.1-0.19-0.25-0.19-0.4c0.13-4.27,1.01-8.58,1.87-12.75
		c0.27-1.32,0.55-2.68,0.8-4.03l-0.27,0.26c-5.19,4.95-10.56,10.07-15.27,15.64c-0.1,0.12-0.26,0.2-0.42,0.18
		c-0.16-0.01-0.31-0.1-0.39-0.24c-2.74-4.49-4.91-8.26-6.78-11.77c-0.47,1.58-0.95,3.15-1.43,4.73c-1.11,3.65-2.26,7.42-3.3,11.16
		c-0.04,0.15-0.16,0.28-0.3,0.33c-0.15,0.05-0.32,0.04-0.45-0.05c-5.8-3.77-11.88-7.29-17.76-10.69l-0.59-0.34
		c2.25,7.47,4.92,14.78,8.14,22.28c0.07,0.15,0.05,0.33-0.04,0.47s-0.25,0.23-0.41,0.23c-1.44,0.02-2.88,0.03-4.32,0.04
		c-2.95,0.02-5.99,0.04-9,0.16c2.68,3.85,5.07,7.06,7.49,10.03c4.98-0.05,10.02,0.12,14.89,0.28c3.47,0.12,7.07,0.24,10.6,0.28
		c0.03,0,0.07,0,0.1,0.01c1.93-5.17,5.8-8.1,10.96-8.29c3.13-0.11,5.83,0.8,7.79,2.65c2.07,1.94,3.21,4.77,3.29,8.18
		c0.13,5.1-2.96,9.48-8.3,11.76C111.83,93.49,111.65,97.45,111.53,101.15z"/>
	<g>
		<g>
			<path class="st1" d="M120.22,85.2c-1.62,2.13-3.47,3.74-5.83,5c-0.18,3.08-0.35,6.16-0.41,9.24c3.91,1.93,7.9,3.65,11.91,5.37
				c0.12,0.05,0.25,0.1,0.37,0.16c-0.45-1.29-0.95-2.55-1.4-3.84C123.02,95.86,121.5,90.63,120.22,85.2z"/>
			<path class="st1" d="M126.25,105.47c-0.07,0-0.14-0.01-0.21-0.04l-0.36-0.16c-3.69-1.58-7.88-3.38-11.93-5.38
				c-0.17-0.09-0.28-0.26-0.28-0.46c0.07-3.17,0.24-6.33,0.41-9.26c0.01-0.17,0.11-0.33,0.26-0.41c2.27-1.22,4.08-2.76,5.67-4.86
				c0.12-0.16,0.31-0.23,0.5-0.19c0.19,0.04,0.34,0.19,0.38,0.37c1.3,5.5,2.81,10.7,4.61,15.88c0.23,0.65,0.46,1.28,0.7,1.92
				c0.24,0.64,0.48,1.27,0.7,1.92c0.07,0.19,0.01,0.4-0.14,0.53C126.5,105.42,126.38,105.47,126.25,105.47z M114.48,99.13
				c3.69,1.81,7.49,3.45,10.91,4.92c-0.1-0.27-0.2-0.54-0.3-0.82c-0.24-0.64-0.48-1.29-0.71-1.94c-1.71-4.9-3.15-9.81-4.4-14.98
				c-1.46,1.74-3.11,3.09-5.1,4.2C114.71,93.25,114.55,96.18,114.48,99.13z"/>
		</g>
		<g>
			<path class="st1" d="M131.46,50.48c0.29-0.24,0.67-0.54,0.92-0.79c-1.89,0.11-5.2,0.41-6.81,0.4c-3.79-0.04-5.37-0.18-8.93,0.95
				c-0.7,0.22-2.73,0.81-3.68,0.92c-0.06-1.27-0.08-3.22-0.05-4.37c0.08-2.98,0.56-5.46,1.05-8.27c0.06-0.37,0.13-0.69,0.2-1.07
				c-3.53,3.46-6.75,6.79-9.88,10.75c-0.66,0.84-1.79,2.32-2.54,3.23c-0.73-1.09-1.68-2.64-2.32-3.69
				c-1.44-2.34-2.64-4.38-3.98-6.68c-1.41,4.7-2.72,9.44-3.87,14.2c-1.02-0.68-2.66-1.76-3.58-2.36c-4.28-2.8-8.29-5.22-12.63-7.73
				c1.46,4.43,2.78,8.17,4.66,12.63c0.84,1.98,2.17,5.11,3.07,7.28c-1.18,0.05-2.92,0.06-4.01,0.08c-2.2,0.05-3.87,0.03-6.01,0.04
				c-0.87,0-1.99,0-2.91,0.01c1.2,1.61,2.41,3.21,3.69,4.76c0.04,0.05,0.11,0.13,0.16,0.19c7.47-0.04,14.94,0.43,22.4,0.57
				c2.84-4.99,6.89-8.1,12.86-8.26c8.36-0.22,12.6,5.2,13.6,13.17c0.17,1.38-0.22,2.77-0.47,4.1c3.5-0.98,7.06-1.84,10.62-2.66
				c-0.25-0.23-0.5-0.44-0.76-0.66c-3.4-2.99-6.64-5.92-9.53-9.48c-0.43-0.53-1.03-1.42-1.46-2.02c0.38-0.56,0.89-1.46,1.18-1.99
				C125.41,58.17,126.43,54.69,131.46,50.48z M93.68,63.04c-1.89,0.26-3.65,0.7-5.46,1.27c0.96-2.16,2.33-3.62,4.81-3.96
				s4.59,0.71,6.39,2.37C97.51,62.69,95.57,62.78,93.68,63.04z M111.29,59.93c-1.87,0.43-3.84,1.03-5.66,1.7
				c1-2.22,2.65-3.7,5.03-4.26c2.38-0.56,4.32-0.09,6.11,1.51C114.89,59.14,113.16,59.5,111.29,59.93z"/>
			<path class="st1" d="M122.39,81.05c-0.12,0-0.24-0.05-0.34-0.13c-0.13-0.12-0.19-0.29-0.15-0.46c0.05-0.26,0.1-0.52,0.16-0.79
				c0.22-1.05,0.44-2.13,0.31-3.16c-0.74-5.95-3.62-13.01-13.09-12.73c-5.39,0.14-9.46,2.76-12.44,8c-0.09,0.16-0.28,0.23-0.44,0.25
				c-2.9-0.06-5.86-0.16-8.71-0.27c-4.48-0.16-9.12-0.33-13.67-0.3c0,0,0,0,0,0c-0.15,0-0.3-0.07-0.39-0.19l-0.09-0.11
				c-1.27-1.55-2.42-3.05-3.76-4.85c-0.11-0.15-0.13-0.35-0.05-0.52c0.08-0.17,0.25-0.28,0.44-0.28c0.6-0.01,1.29-0.01,1.94-0.01
				l2.67-0.01c1.41,0,2.72-0.01,4.3-0.04l1.17-0.02c0.68-0.01,1.44-0.02,2.11-0.04c-0.65-1.54-1.44-3.41-2.11-5.01l-0.68-1.6
				c-1.87-4.42-3.17-8.12-4.68-12.67c-0.07-0.2,0-0.41,0.16-0.54c0.16-0.13,0.39-0.15,0.57-0.05c4.79,2.76,8.7,5.15,12.66,7.74
				c0.7,0.46,1.81,1.19,2.76,1.82l0.23,0.15c1.06-4.31,2.27-8.74,3.71-13.53c0.06-0.19,0.22-0.33,0.42-0.35
				c0.2-0.03,0.39,0.07,0.49,0.25c1.54,2.65,2.69,4.59,3.97,6.67l0.07,0.11c0.54,0.88,1.25,2.03,1.87,2.99
				c0.45-0.56,0.96-1.22,1.41-1.8l0.7-0.89c3.08-3.91,6.19-7.15,9.92-10.8c0.16-0.15,0.39-0.19,0.58-0.08
				c0.19,0.1,0.3,0.32,0.26,0.53l-0.1,0.51c-0.04,0.18-0.07,0.37-0.11,0.56l-0.13,0.77c-0.43,2.45-0.83,4.76-0.91,7.43
				c-0.03,0.93-0.02,2.52,0.03,3.77c0.98-0.2,2.43-0.62,3.05-0.81c3.3-1.05,4.99-1.03,8.06-0.98l1.03,0.01
				c1.06-0.02,2.9-0.13,4.54-0.25c0.83-0.06,1.61-0.12,2.24-0.15c0.21-0.01,0.4,0.11,0.48,0.29c0.08,0.19,0.04,0.41-0.1,0.56
				c-0.19,0.19-0.47,0.42-0.72,0.63l-0.23,0.19l0,0c-3.95,3.31-5.37,6.12-7.32,10.02c-0.48,0.96-1,1.99-1.59,3.09
				c-0.22,0.41-0.64,1.15-1.01,1.74c0.1,0.14,0.2,0.29,0.31,0.44c0.32,0.46,0.66,0.94,0.94,1.28c2.85,3.51,6.11,6.46,9.48,9.42
				l0.27,0.23c0.17,0.14,0.33,0.29,0.5,0.44c0.14,0.13,0.19,0.32,0.15,0.5c-0.05,0.18-0.19,0.32-0.37,0.36
				c-3.19,0.74-6.94,1.63-10.59,2.65C122.48,81.05,122.44,81.05,122.39,81.05z M109.76,62.77c7.68,0,12.5,4.82,13.6,13.62
				c0.15,1.19-0.09,2.35-0.32,3.46c3.07-0.84,6.16-1.59,8.9-2.23l-0.02-0.02c-3.4-2.99-6.69-5.97-9.59-9.54
				c-0.29-0.35-0.64-0.86-0.98-1.33c-0.18-0.25-0.35-0.5-0.5-0.71c-0.12-0.17-0.13-0.4-0.01-0.57c0.35-0.51,0.85-1.38,1.15-1.95
				c0.59-1.1,1.1-2.11,1.58-3.07c1.9-3.78,3.4-6.77,7.34-10.14c-0.24,0.02-0.48,0.04-0.73,0.05c-1.65,0.12-3.52,0.23-4.62,0.25
				l-1.03-0.01c-3.06-0.04-4.6-0.06-7.74,0.94c-0.53,0.17-2.71,0.82-3.78,0.94c-0.14,0.02-0.28-0.03-0.38-0.12
				c-0.11-0.09-0.17-0.22-0.18-0.36c-0.06-1.35-0.08-3.29-0.05-4.41c0.08-2.74,0.49-5.09,0.92-7.57l0.05-0.29
				c-3.21,3.18-5.97,6.12-8.71,9.59l-0.69,0.89c-0.61,0.79-1.33,1.71-1.86,2.35c-0.1,0.12-0.26,0.2-0.41,0.18
				c-0.16-0.01-0.3-0.09-0.39-0.22c-0.71-1.06-1.61-2.53-2.26-3.59l-0.07-0.11c-1.12-1.82-2.14-3.52-3.4-5.69
				c-1.37,4.61-2.52,8.89-3.54,13.06c-0.04,0.16-0.15,0.29-0.3,0.35c-0.15,0.06-0.32,0.04-0.46-0.05l-0.82-0.54
				c-0.94-0.62-2.06-1.36-2.75-1.81c-3.63-2.37-7.21-4.57-11.47-7.05c1.33,3.97,2.55,7.37,4.23,11.35l0.68,1.6
				c0.78,1.83,1.71,4.04,2.39,5.68c0.06,0.15,0.05,0.32-0.04,0.46c-0.09,0.14-0.24,0.22-0.4,0.23c-0.82,0.03-1.9,0.05-2.85,0.06
				l-1.16,0.02c-1.59,0.03-2.9,0.04-4.32,0.04l-2.67,0.01c-0.31,0-0.63,0-0.95,0c1.09,1.45,2.06,2.71,3.08,3.95l0,0.01
				c4.49-0.02,9.06,0.15,13.47,0.31c2.75,0.1,5.6,0.2,8.4,0.26c3.15-5.4,7.45-8.1,13.14-8.25
				C109.42,62.78,109.59,62.77,109.76,62.77z M131.46,50.48L131.46,50.48L131.46,50.48z M88.22,64.81c-0.14,0-0.28-0.06-0.37-0.17
				c-0.13-0.15-0.16-0.36-0.08-0.54c1.14-2.57,2.79-3.92,5.2-4.25c2.36-0.32,4.65,0.52,6.8,2.5c0.15,0.14,0.2,0.36,0.13,0.55
				c-0.08,0.19-0.29,0.31-0.47,0.31c-2.02-0.03-3.93,0.07-5.67,0.31c-1.72,0.24-3.43,0.63-5.38,1.25
				C88.32,64.8,88.27,64.81,88.22,64.81z M93.96,60.79c-0.29,0-0.57,0.02-0.86,0.06c-1.72,0.23-2.96,1.06-3.9,2.64
				c1.55-0.44,2.98-0.75,4.41-0.95c1.38-0.19,2.86-0.3,4.41-0.32C96.69,61.26,95.35,60.79,93.96,60.79z M105.63,62.13
				c-0.14,0-0.27-0.06-0.37-0.16c-0.14-0.15-0.17-0.36-0.09-0.55c1.11-2.44,2.91-3.97,5.37-4.54c2.57-0.6,4.65-0.08,6.55,1.63
				c0.14,0.13,0.2,0.33,0.14,0.52c-0.06,0.19-0.22,0.32-0.41,0.35c-1.67,0.24-3.34,0.56-5.43,1.04c-1.78,0.41-3.72,0.99-5.6,1.68
				C105.75,62.12,105.69,62.13,105.63,62.13z M112.5,57.64c-0.54,0-1.12,0.07-1.73,0.22c-1.74,0.41-3.11,1.37-4.09,2.88
				c1.53-0.51,3.06-0.95,4.49-1.29c1.64-0.38,3.04-0.66,4.37-0.88C114.61,57.94,113.62,57.64,112.5,57.64z"/>
		</g>
	</g>
</g>
</svg>
